/***** User ApplicationOptions/ApplicationOptions **************************************************
|-append_decoding_keys_to_output_manifest = True  (default: True)
|-auditors                                = []  (default: [])
|-buffer_events                           = 20000  (default: 20000)
|-conddb_tag                              = 'upgrade/sim-20220705-vc-mu100'  (default: '')
|-conditions_version                      = ''  (default: '')
|-control_flow_file                       = ''  (default: '')
|-data_flow_file                          = ''  (default: '')
|-data_type                               = 'Upgrade'  (default: 'Upgrade')
|-dddb_tag                                = 'upgrade/dddb-20220705'  (default: '')
|-event_store                             = 'HiveWhiteBoard'  (default: 'HiveWhiteBoard')
|-evt_max                                 = 8  (default: -1)
|-first_evt                               = 0  (default: 0)
|-geometry_version                        = ''  (default: '')
|-histo_file                              = ''  (default: '')
|-input_files                             = ['root://eoslhcb.cern.ch//eos/lhcb/wg/rta/WP6/Allen/digi_input/upgrade-magup-sim10aU1-minbias/Digi-00151659_00000001_dddb-20220705_sim-20220705-vc-mu100.digi']
|                                         (default: [])
|-input_manifest_file                     = ''  (default: '')
|-input_raw_format                        = 0.5  (default: 0.5)
|-input_type                              = 'ROOT'  (default: '')
|-lines_maker                             = None
|-memory_pool_size                        = 10485760  (default: 10485760)
|-monitoring_file                         = ''  (default: '')
|-msg_svc_format                          = '% F%35W%S %7W%R%T %0W%M'  (default: '% F%35W%S %7W%R%T %0W%M')
|-msg_svc_time_format                     = '%Y-%m-%d %H:%M:%S UTC'  (default: '%Y-%m-%d %H:%M:%S UTC')
|-n_event_slots                           = 1  (default: -1)
|-n_threads                               = 1  (default: 1)
|-ntuple_file                             = ''  (default: '')
|-output_file                             = ''  (default: '')
|-output_level                            = 3  (default: 3)
|-output_manifest_file                    = ''  (default: '')
|-output_type                             = ''  (default: '')
|-phoenix_filename                        = ''  (default: '')
|-preamble_algs                           = []  (default: [])
|-print_freq                              = 10000  (default: 10000)
|-python_logging_level                    = 20  (default: 20)
|-require_specific_decoding_keys          = []  (default: [])
|-scheduler_legacy_mode                   = True  (default: True)
|-simulation                              = True  (default: None)
|-use_iosvc                               = False  (default: False)
|                                         (default: '')
|-write_decoding_keys_to_git              = True  (default: True)
\----- (End of User ApplicationOptions/ApplicationOptions) -----------------------------------------
ApplicationMgr    SUCCESS
====================================================================================================================================
====================================================================================================================================
ApplicationMgr       INFO Application Manager Configured successfully
HLTControlFlowMgr                      INFO Start initialization
HLTControlFlowMgr                      INFO Concurrency level information:
HLTControlFlowMgr                      INFO  o Number of events slots: 1
HLTControlFlowMgr                      INFO  o TBB thread pool size:  'ThreadPoolSize':1
ApplicationMgr                         INFO Application Manager Initialized successfully
VeloAlignCond                       VERBOSE Making transformation matrix for '/VPLeft' Correcting for motion system position.
VeloAlignCond                       VERBOSE Making transformation matrix for '/VPRight' Correcting for motion system position.
DeFTDetector                           INFO Current FT geometry version =   64
ApplicationMgr                         INFO Application Manager Started successfully
EventPersistencySvc                    INFO Added successfully Conversion service:RootCnvSvc
EventSelector                          INFO Stream:EventSelector.DataStreamTool_1 Def:DATAFILE='root://eoslhcb.cern.ch//eos/lhcb/wg/rta/WP6/Allen/digi_input/upgrade-magup-sim10aU1-minbias/Digi-00151659_00000001_dddb-20220705_sim-20220705-vc-mu100.digi' SVC='Gaudi::RootEvtSelector' OPT='READ' IgnoreChecksum='YES'
HLTControlFlowMgr                      INFO Will measure time between events 0 and 7 (stop might be some events later)
HLTControlFlowMgr                      INFO Starting loop on events
EventSelector                       SUCCESS Reading Event record 1. Record number within stream 1: 1
VeloAlignCond                       VERBOSE Making transformation matrix for '/VPLeft' Correcting for motion system position.
VeloAlignCond                       VERBOSE Making transformation matrix for '/VPRight' Correcting for motion system position.
LHCb__DetDesc__TestBeamSpot_11d9...    INFO BeamSpot: (0, 1, 0)
VeloAlignCond                       VERBOSE Making transformation matrix for '/VPLeft' Correcting for motion system position.
VeloAlignCond                       VERBOSE Making transformation matrix for '/VPRight' Correcting for motion system position.
LHCb__DetDesc__TestBeamSpot_11d9...    INFO BeamSpot: (-8, 1, 0)
VeloAlignCond                       VERBOSE Making transformation matrix for '/VPLeft' Correcting for motion system position.
VeloAlignCond                       VERBOSE Making transformation matrix for '/VPRight' Correcting for motion system position.
LHCb__DetDesc__TestBeamSpot_11d9...    INFO BeamSpot: (0, 4, 0)
VeloAlignCond                       VERBOSE Making transformation matrix for '/VPLeft' Correcting for motion system position.
VeloAlignCond                       VERBOSE Making transformation matrix for '/VPRight' Correcting for motion system position.
LHCb__DetDesc__TestBeamSpot_11d9...    INFO BeamSpot: (0, -1, 0)
VeloAlignCond                       VERBOSE Making transformation matrix for '/VPLeft' Correcting for motion system position.
VeloAlignCond                       VERBOSE Making transformation matrix for '/VPRight' Correcting for motion system position.
LHCb__DetDesc__TestBeamSpot_11d9...    INFO BeamSpot: (0, 1, 0)
LHCb__DetDesc__TestBeamSpot_11d9...    INFO BeamSpot: (0, 1, 0)
VeloAlignCond                       VERBOSE Making transformation matrix for '/VPLeft' Correcting for motion system position.
VeloAlignCond                       VERBOSE Making transformation matrix for '/VPRight' Correcting for motion system position.
LHCb__DetDesc__TestBeamSpot_11d9...    INFO BeamSpot: (-11.75, 1.2, 0)
VeloAlignCond                       VERBOSE Making transformation matrix for '/VPLeft' Correcting for motion system position.
VeloAlignCond                       VERBOSE Making transformation matrix for '/VPRight' Correcting for motion system position.
LHCb__DetDesc__TestBeamSpot_11d9...    INFO BeamSpot: (0, 1, 0)
ApplicationMgr                         INFO Application Manager Stopped successfully
HLTControlFlowMgr                      INFO
HLTControlFlowMgr                      INFO StateTree: CFNode   #executed  #passed
LAZY_AND: velo_decoding                                                          #=8       Sum=8           Eff=|( 100.0000 +- 0.00000 )%|
 LHCb__Tests__FakeRunNumberProducer/LHCb__Tests__FakeRunNumberProducer_3a3b7622  #=8       Sum=8           Eff=|( 100.0000 +- 0.00000 )%|
 LHCb__DetDesc__TestBeamSpot/LHCb__DetDesc__TestBeamSpot_11d983b1                #=8       Sum=8           Eff=|( 100.0000 +- 0.00000 )%|
HLTControlFlowMgr                      INFO Histograms converted successfully according to request.
ApplicationMgr                         INFO Application Manager Finalized successfully
ApplicationMgr                         INFO Application Manager Terminated successfully
