ApplicationMgr    SUCCESS
====================================================================================================================================
====================================================================================================================================
ApplicationMgr       INFO Application Manager Configured successfully
DetectorPersist...   INFO Added successfully Conversion service:XmlCnvSvc
DetectorDataSvc   SUCCESS Detector description database: git:/lhcb.xml
HLTControlFlowMgr    INFO Start initialization
HLTControlFlowMgr    INFO Will not use an EventSelector.
HLTControlFlowMgr    INFO Concurrency level information:
HLTControlFlowMgr    INFO  o Number of events slots: n
HLTControlFlowMgr    INFO  o TBB thread pool size:  'ThreadPoolSize':n
ApplicationMgr       INFO Application Manager Initialized successfully
ApplicationMgr       INFO Application Manager Started successfully
HLTControlFlowMgr    INFO Will measure time between events n and n (stop might be some events later)
HLTControlFlowMgr    INFO Starting loop on events
LHCb::MDF::IOSvcMM   INFO Over with input from /tmp/00146082_00012611_1.mdf, processed 1/2 files.
ApplicationMgr       INFO Application Manager Stopped successfully
HLTControlFlowMgr    INFO
HLTControlFlowMgr    INFO StateTree: CFNode   #executed  #passed
LAZY_AND: moore  #=3000    Sum=3000        Eff=|( 100.0000 +- 0.00000 )%|
 ReadMDFInput    #=3000    Sum=3000        Eff=|( 100.0000 +- 0.00000 )%|
HLTControlFlowMgr    INFO Histograms converted successfully according to request.
ToolSvc              INFO Removing all tools created by ToolSvc
ApplicationMgr       INFO Application Manager Finalized successfully
ApplicationMgr       INFO Application Manager Terminated successfully
ReadMDFInput         INFO Number of counters : 1
 |    Counter                                      |     #     |    sum     | mean/eff^* | rms/err^*  |     min     |     max     |
 | "#banks in raw event"                           |      3000 |    2962392 |     987.46 |     49.191 |      923.00 |      1025.0 |
