ApplicationMgr    SUCCESS
====================================================================================================================================
====================================================================================================================================
ApplicationMgr       INFO Application Manager Configured successfully
TESFingerPrint    VERBOSE ServiceLocatorHelper::service: found service EventDataSvc
TESFingerPrint    VERBOSE ServiceLocatorHelper::service: found service TimelineSvc
TESFingerPrint      DEBUG input handles: 0
TESFingerPrint      DEBUG output handles: 0
TESFingerPrint      DEBUG Adding public ToolHandle tool ToolSvc.DataSvcFileEntriesTool (DataSvcFileEntriesTool)
TESFingerPrint      DEBUG Data Deps for TESFingerPrint
EventPersistenc...   INFO Added successfully Conversion service:RootCnvSvc
InputCopyStream      INFO Data source: EventDataSvc output: DATAFILE='PFN:Reco14-Stripping20.mdst' SVC='RootCnvSvc' OPT='REC'
FileRecordPersi...   INFO Added successfully Conversion service:FileRecordCnvSvc
FSRInputCopyStream   INFO Data source: FileRecordDataSvc output: DATAFILE='PFN:Reco14-Stripping20.mdst' SVC='FileRecordCnvSvc' OPT='REC'
ApplicationMgr       INFO Application Manager Initialized successfully
ApplicationMgr       INFO Application Manager Started successfully
EventSelector     SUCCESS Reading Event record 1. Record number within stream 1: 1
StoreExplorerAlg     INFO ========= /Event[0x########@EventDataSvc]:
StoreExplorerAlg     INFO +--> /Event [Address: CLID=0x1 Type=0x2]  DataObject
StoreExplorerAlg     INFO | +--> /Rec [Address: CLID=0x1 Type=0x2]  DataObject
StoreExplorerAlg     INFO | | +--> /Header [Address: CLID=0x69 Type=0x2]  LHCb::RecHeader
StoreExplorerAlg     INFO | | +--> /Status [Address: CLID=0x######## Type=0x2]  LHCb::ProcStatus
StoreExplorerAlg     INFO | | +--> /Summary [Address: CLID=0x6a Type=0x2]  LHCb::RecSummary
StoreExplorerAlg     INFO | +--> /Trigger [Address: CLID=0x1 Type=0x2]  DataObject
StoreExplorerAlg     INFO | | +--> /RawEvent [Address: CLID=0x3ea Type=0x2]  LHCb::RawEvent
StoreExplorerAlg     INFO | +--> /Strip [Address: CLID=0x1 Type=0x2]  DataObject
StoreExplorerAlg     INFO | | +--> /pPhys [Address: CLID=0x1 Type=0x2]  DataObject
StoreExplorerAlg     INFO | |   +--> /DecReports [Address: CLID=0x617 Type=0x2]  LHCb::PackedDecReport
StoreExplorerAlg     INFO   +--> /Bhadron [Address: CLID=0x1 Type=0x2]  DataObject
StoreExplorerAlg     INFO   | +--> /pRec [Address: CLID=0x1 Type=0x2]  DataObject
StoreExplorerAlg     INFO   | | +--> /Track [Address: CLID=0x1 Type=0x2]  DataObject
StoreExplorerAlg     INFO   | | | +--> /Clusters [Address: CLID=0x604 Type=0x2]  LHCb::PackedClusters
StoreExplorerAlg     INFO   | | | +--> /Best [Address: CLID=0x60e Type=0x2]  LHCb::PackedTracks
StoreExplorerAlg     INFO   | | | +--> /Muon [Address: CLID=0x60e Type=0x2]  LHCb::PackedTracks
StoreExplorerAlg     INFO   | | +--> /ProtoP [Address: CLID=0x1 Type=0x2]  DataObject
StoreExplorerAlg     INFO   | | | +--> /Charged [Address: CLID=0x610 Type=0x2]  LHCb::PackedProtoParticles
StoreExplorerAlg     INFO   | | | +--> /Neutrals [Address: CLID=0x610 Type=0x2]  LHCb::PackedProtoParticles
StoreExplorerAlg     INFO   | | +--> /Calo [Address: CLID=0x1 Type=0x2]  DataObject
StoreExplorerAlg     INFO   | | | +--> /Electrons [Address: CLID=0x60f Type=0x2]  LHCb::PackedCaloHypos
StoreExplorerAlg     INFO   | | | +--> /Photons [Address: CLID=0x60f Type=0x2]  LHCb::PackedCaloHypos
StoreExplorerAlg     INFO   | | | +--> /EcalClusters [Address: CLID=0x605 Type=0x2]  LHCb::PackedCaloClusters
StoreExplorerAlg     INFO   | | +--> /Rich [Address: CLID=0x1 Type=0x2]  DataObject
StoreExplorerAlg     INFO   | | | +--> /PIDs [Address: CLID=0x619 Type=0x2]  LHCb::PackedRichPIDs
StoreExplorerAlg     INFO   | | +--> /Muon [Address: CLID=0x1 Type=0x2]  DataObject
StoreExplorerAlg     INFO   | | | +--> /MuonPID [Address: CLID=0x623 Type=0x2]  LHCb::PackedMuonPIDs
StoreExplorerAlg     INFO   | | +--> /Vertex [Address: CLID=0x1 Type=0x2]  DataObject
StoreExplorerAlg     INFO   | |   +--> /Primary [Address: CLID=0x611 Type=0x2]  LHCb::PackedRecVertices
StoreExplorerAlg     INFO     +--> /pPhys [Address: CLID=0x1 Type=0x2]  DataObject
StoreExplorerAlg     INFO     | +--> /Particles [Address: CLID=0x62d Type=0x2]  LHCb::PackedParticles
StoreExplorerAlg     INFO     | +--> /Vertices [Address: CLID=0x62e Type=0x2]  LHCb::PackedVertices
StoreExplorerAlg     INFO     | +--> /RecVertices [Address: CLID=0x611 Type=0x2]  LHCb::PackedRecVertices
StoreExplorerAlg     INFO       +--> /Relations [Address: CLID=0x618 Type=0x2]  LHCb::PackedRelations
EventSelector     SUCCESS Reading Event record 2. Record number within stream 1: 2
StoreExplorerAlg     INFO ========= /Event[0x########@EventDataSvc]:
StoreExplorerAlg     INFO +--> /Event [Address: CLID=0x1 Type=0x2]  DataObject
StoreExplorerAlg     INFO | +--> /Rec [Address: CLID=0x1 Type=0x2]  DataObject
StoreExplorerAlg     INFO | | +--> /Header [Address: CLID=0x69 Type=0x2]  LHCb::RecHeader
StoreExplorerAlg     INFO | | +--> /Status [Address: CLID=0x######## Type=0x2]  LHCb::ProcStatus
StoreExplorerAlg     INFO | | +--> /Summary [Address: CLID=0x6a Type=0x2]  LHCb::RecSummary
StoreExplorerAlg     INFO | +--> /Trigger [Address: CLID=0x1 Type=0x2]  DataObject
StoreExplorerAlg     INFO | | +--> /RawEvent [Address: CLID=0x3ea Type=0x2]  LHCb::RawEvent
StoreExplorerAlg     INFO | +--> /Strip [Address: CLID=0x1 Type=0x2]  DataObject
StoreExplorerAlg     INFO | | +--> /pPhys [Address: CLID=0x1 Type=0x2]  DataObject
StoreExplorerAlg     INFO | |   +--> /DecReports [Address: CLID=0x617 Type=0x2]  LHCb::PackedDecReport
StoreExplorerAlg     INFO   +--> /Bhadron [Address: CLID=0x1 Type=0x2]  DataObject
StoreExplorerAlg     INFO   | +--> /pRec [Address: CLID=0x1 Type=0x2]  DataObject
StoreExplorerAlg     INFO   | | +--> /Track [Address: CLID=0x1 Type=0x2]  DataObject
StoreExplorerAlg     INFO   | | | +--> /Clusters [Address: CLID=0x604 Type=0x2]  LHCb::PackedClusters
StoreExplorerAlg     INFO   | | | +--> /Best [Address: CLID=0x60e Type=0x2]  LHCb::PackedTracks
StoreExplorerAlg     INFO   | | +--> /ProtoP [Address: CLID=0x1 Type=0x2]  DataObject
StoreExplorerAlg     INFO   | | | +--> /Charged [Address: CLID=0x610 Type=0x2]  LHCb::PackedProtoParticles
StoreExplorerAlg     INFO   | | | +--> /Neutrals [Address: CLID=0x610 Type=0x2]  LHCb::PackedProtoParticles
StoreExplorerAlg     INFO   | | +--> /Calo [Address: CLID=0x1 Type=0x2]  DataObject
StoreExplorerAlg     INFO   | | | +--> /Electrons [Address: CLID=0x60f Type=0x2]  LHCb::PackedCaloHypos
StoreExplorerAlg     INFO   | | | +--> /Photons [Address: CLID=0x60f Type=0x2]  LHCb::PackedCaloHypos
StoreExplorerAlg     INFO   | | | +--> /EcalClusters [Address: CLID=0x605 Type=0x2]  LHCb::PackedCaloClusters
StoreExplorerAlg     INFO   | | +--> /Rich [Address: CLID=0x1 Type=0x2]  DataObject
StoreExplorerAlg     INFO   | | | +--> /PIDs [Address: CLID=0x619 Type=0x2]  LHCb::PackedRichPIDs
StoreExplorerAlg     INFO   | | +--> /Muon [Address: CLID=0x1 Type=0x2]  DataObject
StoreExplorerAlg     INFO   | | | +--> /MuonPID [Address: CLID=0x623 Type=0x2]  LHCb::PackedMuonPIDs
StoreExplorerAlg     INFO   | | +--> /Vertex [Address: CLID=0x1 Type=0x2]  DataObject
StoreExplorerAlg     INFO   | |   +--> /Primary [Address: CLID=0x611 Type=0x2]  LHCb::PackedRecVertices
StoreExplorerAlg     INFO     +--> /pPhys [Address: CLID=0x1 Type=0x2]  DataObject
StoreExplorerAlg     INFO     | +--> /Particles [Address: CLID=0x62d Type=0x2]  LHCb::PackedParticles
StoreExplorerAlg     INFO     | +--> /Vertices [Address: CLID=0x62e Type=0x2]  LHCb::PackedVertices
StoreExplorerAlg     INFO     | +--> /RecVertices [Address: CLID=0x611 Type=0x2]  LHCb::PackedRecVertices
StoreExplorerAlg     INFO       +--> /Relations [Address: CLID=0x618 Type=0x2]  LHCb::PackedRelations
EventSelector     SUCCESS Reading Event record 3. Record number within stream 1: 3
StoreExplorerAlg     INFO ========= /Event[0x########@EventDataSvc]:
StoreExplorerAlg     INFO +--> /Event [Address: CLID=0x1 Type=0x2]  DataObject
StoreExplorerAlg     INFO | +--> /Rec [Address: CLID=0x1 Type=0x2]  DataObject
StoreExplorerAlg     INFO | | +--> /Header [Address: CLID=0x69 Type=0x2]  LHCb::RecHeader
StoreExplorerAlg     INFO | | +--> /Status [Address: CLID=0x######## Type=0x2]  LHCb::ProcStatus
StoreExplorerAlg     INFO | | +--> /Summary [Address: CLID=0x6a Type=0x2]  LHCb::RecSummary
StoreExplorerAlg     INFO | +--> /Trigger [Address: CLID=0x1 Type=0x2]  DataObject
StoreExplorerAlg     INFO | | +--> /RawEvent [Address: CLID=0x3ea Type=0x2]  LHCb::RawEvent
StoreExplorerAlg     INFO | +--> /Strip [Address: CLID=0x1 Type=0x2]  DataObject
StoreExplorerAlg     INFO | | +--> /pPhys [Address: CLID=0x1 Type=0x2]  DataObject
StoreExplorerAlg     INFO | |   +--> /DecReports [Address: CLID=0x617 Type=0x2]  LHCb::PackedDecReport
StoreExplorerAlg     INFO   +--> /Bhadron [Address: CLID=0x1 Type=0x2]  DataObject
StoreExplorerAlg     INFO   | +--> /pRec [Address: CLID=0x1 Type=0x2]  DataObject
StoreExplorerAlg     INFO   | | +--> /Track [Address: CLID=0x1 Type=0x2]  DataObject
StoreExplorerAlg     INFO   | | | +--> /Clusters [Address: CLID=0x604 Type=0x2]  LHCb::PackedClusters
StoreExplorerAlg     INFO   | | | +--> /Best [Address: CLID=0x60e Type=0x2]  LHCb::PackedTracks
StoreExplorerAlg     INFO   | | +--> /ProtoP [Address: CLID=0x1 Type=0x2]  DataObject
StoreExplorerAlg     INFO   | | | +--> /Charged [Address: CLID=0x610 Type=0x2]  LHCb::PackedProtoParticles
StoreExplorerAlg     INFO   | | | +--> /Neutrals [Address: CLID=0x610 Type=0x2]  LHCb::PackedProtoParticles
StoreExplorerAlg     INFO   | | +--> /Calo [Address: CLID=0x1 Type=0x2]  DataObject
StoreExplorerAlg     INFO   | | | +--> /Electrons [Address: CLID=0x60f Type=0x2]  LHCb::PackedCaloHypos
StoreExplorerAlg     INFO   | | | +--> /Photons [Address: CLID=0x60f Type=0x2]  LHCb::PackedCaloHypos
StoreExplorerAlg     INFO   | | | +--> /EcalClusters [Address: CLID=0x605 Type=0x2]  LHCb::PackedCaloClusters
StoreExplorerAlg     INFO   | | +--> /Rich [Address: CLID=0x1 Type=0x2]  DataObject
StoreExplorerAlg     INFO   | | | +--> /PIDs [Address: CLID=0x619 Type=0x2]  LHCb::PackedRichPIDs
StoreExplorerAlg     INFO   | | +--> /Muon [Address: CLID=0x1 Type=0x2]  DataObject
StoreExplorerAlg     INFO   | | | +--> /MuonPID [Address: CLID=0x623 Type=0x2]  LHCb::PackedMuonPIDs
StoreExplorerAlg     INFO   | | +--> /Vertex [Address: CLID=0x1 Type=0x2]  DataObject
StoreExplorerAlg     INFO   | |   +--> /Primary [Address: CLID=0x611 Type=0x2]  LHCb::PackedRecVertices
StoreExplorerAlg     INFO     +--> /pPhys [Address: CLID=0x1 Type=0x2]  DataObject
StoreExplorerAlg     INFO     | +--> /Particles [Address: CLID=0x62d Type=0x2]  LHCb::PackedParticles
StoreExplorerAlg     INFO     | +--> /Vertices [Address: CLID=0x62e Type=0x2]  LHCb::PackedVertices
StoreExplorerAlg     INFO     | +--> /RecVertices [Address: CLID=0x611 Type=0x2]  LHCb::PackedRecVertices
StoreExplorerAlg     INFO       +--> /Relations [Address: CLID=0x618 Type=0x2]  LHCb::PackedRelations
EventSelector     SUCCESS Reading Event record 4. Record number within stream 1: 4
StoreExplorerAlg     INFO ========= /Event[0x########@EventDataSvc]:
StoreExplorerAlg     INFO +--> /Event [Address: CLID=0x1 Type=0x2]  DataObject
StoreExplorerAlg     INFO | +--> /Rec [Address: CLID=0x1 Type=0x2]  DataObject
StoreExplorerAlg     INFO | | +--> /Header [Address: CLID=0x69 Type=0x2]  LHCb::RecHeader
StoreExplorerAlg     INFO | | +--> /Status [Address: CLID=0x######## Type=0x2]  LHCb::ProcStatus
StoreExplorerAlg     INFO | | +--> /Summary [Address: CLID=0x6a Type=0x2]  LHCb::RecSummary
StoreExplorerAlg     INFO | +--> /Trigger [Address: CLID=0x1 Type=0x2]  DataObject
StoreExplorerAlg     INFO | | +--> /RawEvent [Address: CLID=0x3ea Type=0x2]  LHCb::RawEvent
StoreExplorerAlg     INFO | +--> /Strip [Address: CLID=0x1 Type=0x2]  DataObject
StoreExplorerAlg     INFO | | +--> /pPhys [Address: CLID=0x1 Type=0x2]  DataObject
StoreExplorerAlg     INFO | |   +--> /DecReports [Address: CLID=0x617 Type=0x2]  LHCb::PackedDecReport
StoreExplorerAlg     INFO   +--> /Bhadron [Address: CLID=0x1 Type=0x2]  DataObject
StoreExplorerAlg     INFO   | +--> /pRec [Address: CLID=0x1 Type=0x2]  DataObject
StoreExplorerAlg     INFO   | | +--> /Track [Address: CLID=0x1 Type=0x2]  DataObject
StoreExplorerAlg     INFO   | | | +--> /Clusters [Address: CLID=0x604 Type=0x2]  LHCb::PackedClusters
StoreExplorerAlg     INFO   | | | +--> /Best [Address: CLID=0x60e Type=0x2]  LHCb::PackedTracks
StoreExplorerAlg     INFO   | | +--> /ProtoP [Address: CLID=0x1 Type=0x2]  DataObject
StoreExplorerAlg     INFO   | | | +--> /Charged [Address: CLID=0x610 Type=0x2]  LHCb::PackedProtoParticles
StoreExplorerAlg     INFO   | | | +--> /Neutrals [Address: CLID=0x610 Type=0x2]  LHCb::PackedProtoParticles
StoreExplorerAlg     INFO   | | +--> /Calo [Address: CLID=0x1 Type=0x2]  DataObject
StoreExplorerAlg     INFO   | | | +--> /Electrons [Address: CLID=0x60f Type=0x2]  LHCb::PackedCaloHypos
StoreExplorerAlg     INFO   | | | +--> /Photons [Address: CLID=0x60f Type=0x2]  LHCb::PackedCaloHypos
StoreExplorerAlg     INFO   | | | +--> /EcalClusters [Address: CLID=0x605 Type=0x2]  LHCb::PackedCaloClusters
StoreExplorerAlg     INFO   | | +--> /Rich [Address: CLID=0x1 Type=0x2]  DataObject
StoreExplorerAlg     INFO   | | | +--> /PIDs [Address: CLID=0x619 Type=0x2]  LHCb::PackedRichPIDs
StoreExplorerAlg     INFO   | | +--> /Muon [Address: CLID=0x1 Type=0x2]  DataObject
StoreExplorerAlg     INFO   | | | +--> /MuonPID [Address: CLID=0x623 Type=0x2]  LHCb::PackedMuonPIDs
StoreExplorerAlg     INFO   | | +--> /Vertex [Address: CLID=0x1 Type=0x2]  DataObject
StoreExplorerAlg     INFO   | |   +--> /Primary [Address: CLID=0x611 Type=0x2]  LHCb::PackedRecVertices
StoreExplorerAlg     INFO     +--> /pPhys [Address: CLID=0x1 Type=0x2]  DataObject
StoreExplorerAlg     INFO     | +--> /Particles [Address: CLID=0x62d Type=0x2]  LHCb::PackedParticles
StoreExplorerAlg     INFO     | +--> /Vertices [Address: CLID=0x62e Type=0x2]  LHCb::PackedVertices
StoreExplorerAlg     INFO     | +--> /RecVertices [Address: CLID=0x611 Type=0x2]  LHCb::PackedRecVertices
StoreExplorerAlg     INFO       +--> /Relations [Address: CLID=0x618 Type=0x2]  LHCb::PackedRelations
EventSelector     SUCCESS Reading Event record 5. Record number within stream 1: 5
StoreExplorerAlg     INFO ========= /Event[0x########@EventDataSvc]:
StoreExplorerAlg     INFO +--> /Event [Address: CLID=0x1 Type=0x2]  DataObject
StoreExplorerAlg     INFO | +--> /Rec [Address: CLID=0x1 Type=0x2]  DataObject
StoreExplorerAlg     INFO | | +--> /Header [Address: CLID=0x69 Type=0x2]  LHCb::RecHeader
StoreExplorerAlg     INFO | | +--> /Status [Address: CLID=0x######## Type=0x2]  LHCb::ProcStatus
StoreExplorerAlg     INFO | | +--> /Summary [Address: CLID=0x6a Type=0x2]  LHCb::RecSummary
StoreExplorerAlg     INFO | +--> /Trigger [Address: CLID=0x1 Type=0x2]  DataObject
StoreExplorerAlg     INFO | | +--> /RawEvent [Address: CLID=0x3ea Type=0x2]  LHCb::RawEvent
StoreExplorerAlg     INFO | +--> /Strip [Address: CLID=0x1 Type=0x2]  DataObject
StoreExplorerAlg     INFO | | +--> /pPhys [Address: CLID=0x1 Type=0x2]  DataObject
StoreExplorerAlg     INFO | |   +--> /DecReports [Address: CLID=0x617 Type=0x2]  LHCb::PackedDecReport
StoreExplorerAlg     INFO   +--> /Bhadron [Address: CLID=0x1 Type=0x2]  DataObject
StoreExplorerAlg     INFO   | +--> /pRec [Address: CLID=0x1 Type=0x2]  DataObject
StoreExplorerAlg     INFO   | | +--> /Track [Address: CLID=0x1 Type=0x2]  DataObject
StoreExplorerAlg     INFO   | | | +--> /Clusters [Address: CLID=0x604 Type=0x2]  LHCb::PackedClusters
StoreExplorerAlg     INFO   | | | +--> /Best [Address: CLID=0x60e Type=0x2]  LHCb::PackedTracks
StoreExplorerAlg     INFO   | | | +--> /Muon [Address: CLID=0x60e Type=0x2]  LHCb::PackedTracks
StoreExplorerAlg     INFO   | | +--> /ProtoP [Address: CLID=0x1 Type=0x2]  DataObject
StoreExplorerAlg     INFO   | | | +--> /Charged [Address: CLID=0x610 Type=0x2]  LHCb::PackedProtoParticles
StoreExplorerAlg     INFO   | | +--> /Calo [Address: CLID=0x1 Type=0x2]  DataObject
StoreExplorerAlg     INFO   | | | +--> /Electrons [Address: CLID=0x60f Type=0x2]  LHCb::PackedCaloHypos
StoreExplorerAlg     INFO   | | | +--> /Photons [Address: CLID=0x60f Type=0x2]  LHCb::PackedCaloHypos
StoreExplorerAlg     INFO   | | | +--> /EcalClusters [Address: CLID=0x605 Type=0x2]  LHCb::PackedCaloClusters
StoreExplorerAlg     INFO   | | +--> /Rich [Address: CLID=0x1 Type=0x2]  DataObject
StoreExplorerAlg     INFO   | | | +--> /PIDs [Address: CLID=0x619 Type=0x2]  LHCb::PackedRichPIDs
StoreExplorerAlg     INFO   | | +--> /Muon [Address: CLID=0x1 Type=0x2]  DataObject
StoreExplorerAlg     INFO   | | | +--> /MuonPID [Address: CLID=0x623 Type=0x2]  LHCb::PackedMuonPIDs
StoreExplorerAlg     INFO   | | +--> /Vertex [Address: CLID=0x1 Type=0x2]  DataObject
StoreExplorerAlg     INFO   | |   +--> /Primary [Address: CLID=0x611 Type=0x2]  LHCb::PackedRecVertices
StoreExplorerAlg     INFO     +--> /pPhys [Address: CLID=0x1 Type=0x2]  DataObject
StoreExplorerAlg     INFO     | +--> /Particles [Address: CLID=0x62d Type=0x2]  LHCb::PackedParticles
StoreExplorerAlg     INFO     | +--> /Vertices [Address: CLID=0x62e Type=0x2]  LHCb::PackedVertices
StoreExplorerAlg     INFO     | +--> /RecVertices [Address: CLID=0x611 Type=0x2]  LHCb::PackedRecVertices
StoreExplorerAlg     INFO       +--> /Relations [Address: CLID=0x618 Type=0x2]  LHCb::PackedRelations
ApplicationMgr       INFO Application Manager Stopped successfully
TESFingerPrint    VERBOSE ==> TES DataObject statistics: {/Event: 5, /Event/Bhadron: 5, /Event/Bhadron/pPhys: 5, /Event/Bhadron/pPhys/Particles: 5, /Event/Bhadron/pPhys/RecVertices: 5, /Event/Bhadron/pPhys/Relations: 5, /Event/Bhadron/pPhys/Vertices: 5, /Event/Bhadron/pRec: 5, /Event/Bhadron/pRec/Calo: 5, /Event/Bhadron/pRec/Calo/EcalClusters: 5, /Event/Bhadron/pRec/Calo/Electrons: 5, /Event/Bhadron/pRec/Calo/Photons: 5, /Event/Bhadron/pRec/Muon: 5, /Event/Bhadron/pRec/Muon/MuonPID: 5, /Event/Bhadron/pRec/ProtoP: 5, /Event/Bhadron/pRec/ProtoP/Charged: 5, /Event/Bhadron/pRec/ProtoP/Neutrals: 4, /Event/Bhadron/pRec/Rich: 5, /Event/Bhadron/pRec/Rich/PIDs: 5, /Event/Bhadron/pRec/Track: 5, /Event/Bhadron/pRec/Track/Best: 5, /Event/Bhadron/pRec/Track/Clusters: 5, /Event/Bhadron/pRec/Track/Muon: 2, /Event/Bhadron/pRec/Vertex: 5, /Event/Bhadron/pRec/Vertex/Primary: 5, /Event/Rec: 5, /Event/Rec/Header: 5, /Event/Rec/Status: 5, /Event/Rec/Summary: 5, /Event/Strip: 5, /Event/Strip/pPhys: 5, /Event/Strip/pPhys/DecReports: 5, /Event/Trigger: 5, /Event/Trigger/RawEvent: 5}
TESFingerPrint    VERBOSE ==> TES Container sizes: {}
InputCopyStream      INFO Events output: 5
FSRInputCopyStream   INFO Set up File Summary Record
FSRInputCopyStream   INFO Events output: 1
EventLoopMgr         INFO Histograms converted successfully according to request.
ToolSvc              INFO Removing all tools created by ToolSvc
ApplicationMgr       INFO Application Manager Finalized successfully
ApplicationMgr       INFO Application Manager Terminated successfully
